"id","valid","startdate","balance"
"TF201912180000                                                  ",False,"2019-12-18","1.56"
"TF201912180001                                                  ",False,"2019-12-18","0"
"TF201912180002                                                  ",True,"2019-12-18","50"
"TF201912180003                                                  ",True,"2019-12-18","15"
"TF201912190000                                                  ",True,"2019-12-19","20"
"TF201912190001                                                  ",True,"2019-12-19","4.2"
"TF201912260000                                                  ",True,"2019-12-26","15"
"TF201912270000                                                  ",True,"2019-12-27","20"
"TF201912270001                                                  ",True,"2019-12-27","4.2"
