"id","valid","from","to"
"OW201912080000  ",True,"Perrache                                                        ","Gratte-Ciel                                                     "
"OW201912100000  ",False,"Foch                                                            ","Cusset                                                          "
"OW201912110000  ",True,"Republique - Villeurbanne                                       ","Bellecour                                                       "
"OW201912110001  ",True,"Laurent Bonnevay                                                ","Cordeliers                                                      "
"OW201912110002  ",True,"Massena                                                         ","Flachet - Alain Gilles                                          "
"OW201912150000  ",False,"Charpennes - Charles Hernu                                      ","Perrache                                                        "
"OW201912160000  ",False,"Hotel de Ville - Louis Pradel                                   ","Vaulx-en-Velin La Soie                                          "
"OW201912180000  ",True,"Ampere - Victor Hugo                                            ","Flachet - Alain Gilles                                          "
